…
  dat <- vroom(...)
  problems(dat) 
Computing scaling factors for all variants... done.
Reading phenotype file... done.
0 individuals out of 24510 have missing phenotype.
Fitting sparse logistic regression with 24510 observations, 7564 variants and 1 covariates... done.
Extracting regression coefficients... Warning message:
The `x` argument of `as_tibble.matrix()` must have unique column names if
`.name_repair` is omitted as of tibble 2.0.0.
ℹ Using compatibility `.name_repair`. 
done.
Computing test statistics... `summarise()` has grouped output by 'CHR'. You can override using the `.groups`
argument.
done.
# A tibble: 123 × 6
   CHR   Group SNP.lead    BP.lead  Size      W
   <chr> <int> <chr>         <int> <int>  <dbl>
 1 19       92 rs3745516  50926742     8 0.220 
 2 19       32 rs2304256  10475652    20 0.120 
 3 19       48 rs3761041  18183917    16 0.0758
 4 19       45 rs8109466  17207011    10 0.0740
 5 19       98 rs273634   51718837     6 0.0594
 6 19       68 rs11084813 35923858    17 0.0543
 7 19       43 rs12710303 16282131     9 0.0492
 8 19       74 rs61750953 41306650    14 0.0485
 9 19       41 rs8110002  15963695    26 0.0460
10 19       50 rs892035   19758190    21 0.0417
11 19       70 rs8102476  38735613    17 0.0411
12 19       14 rs243335    4402017    11 0.0409
13 19       69 rs62109744 36546015    35 0.0405
14 19       33 rs4804148  11270867    22 0.0405
15 19       12 rs45465594  3813906     2 0.0381
16 19       85 rs12461639 48172671    13 0.0366
17 19       25 rs72558007  7762440     9 0.0364
18 19       62 rs7259371  33534641    13 0.0356
19 19       53 rs811020   28393499    21 0.0349
20 19       63 rs16967952 33795241    14 0.0346
# ℹ 103 more rows
…
  dat <- vroom(...)
  problems(dat) 
Computing scaling factors for all variants... done.
Reading phenotype file... done.
0 individuals out of 24510 have missing phenotype.
Fitting sparse logistic regression with 24510 observations, 7564 variants and 1 covariates... done.
Extracting regression coefficients... Warning message:
The `x` argument of `as_tibble.matrix()` must have unique column names if
`.name_repair` is omitted as of tibble 2.0.0.
ℹ Using compatibility `.name_repair`. 
done.
Computing test statistics... `summarise()` has grouped output by 'CHR'. You can override using the `.groups`
argument.
done.
# A tibble: 194 × 6
   CHR   Group SNP.lead    BP.lead  Size       W
   <chr> <int> <chr>         <int> <int>   <dbl>
 1 19      154 rs3745516  50926742     7  0.217 
 2 19       52 rs2304256  10475652    25  0.114 
 3 19      115 rs753420   36643695    26  0.0538
 4 19       74 rs8109466  17207011     4  0.0531
 5 19      123 rs61750953 41306650    13  0.0510
 6 19       53 rs1122608  11163601     9  0.0451
 7 19       82 rs892035   19758190    12  0.0399
 8 19      164 rs7260152  52160305     7  0.0387
 9 19       71 rs12710303 16282131    10  0.0348
10 19      169 rs3745101  53085813     7  0.0321
11 19      112 rs11084813 35923858    10  0.0310
12 19       31 rs778805    5832209     8  0.0305
13 19      135 rs4803766  45371168     7  0.0301
14 19      144 rs12461639 48172671     7  0.0293
15 19      119 rs1865093  39936134     7  0.0285
16 19       75 rs2305767  17294296     8  0.0276
17 19       91 rs7248324  29551533    10 -0.0270
18 19      108 rs8191371  34868776     6  0.0265
19 19      133 rs8108277  45205877     3  0.0260
20 19      121 rs4490099  40731491     5  0.0260
# ℹ 174 more rows
…
  dat <- vroom(...)
  problems(dat) 
Computing scaling factors for all variants... done.
Reading phenotype file... done.
0 individuals out of 24510 have missing phenotype.
Fitting sparse logistic regression with 24510 observations, 7564 variants and 1 covariates... done.
Extracting regression coefficients... Warning message:
The `x` argument of `as_tibble.matrix()` must have unique column names if
`.name_repair` is omitted as of tibble 2.0.0.
ℹ Using compatibility `.name_repair`. 
done.
Computing test statistics... `summarise()` has grouped output by 'CHR'. You can override using the `.groups`
argument.
done.
# A tibble: 311 × 6
   CHR   Group SNP.lead     BP.lead  Size      W
   <chr> <int> <chr>          <int> <int>  <dbl>
 1 19      289 rs3745516   50926742     3 0.216 
 2 19       96 rs2304256   10475652    14 0.0925
 3 19      135 rs8109466   17207011     2 0.0500
 4 19      304 rs273634    51718837     5 0.0461
 5 19      232 rs61750953  41306650     3 0.0422
 6 19       39 rs243335     4402017     5 0.0413
 7 19      193 rs7259371   33534641    11 0.0406
 8 19       97 rs1122608   11163601     8 0.0366
 9 19      122 rs116923487 15133803     6 0.0365
10 19      311 rs7260152   52160305     6 0.0351
11 19      129 rs12710303  16282131     7 0.0337
12 19      211 rs11084813  35923858     4 0.0317
13 19       14 rs10417628   2251817     1 0.0302
14 19      342 rs17305311  54705641     2 0.0297
15 19      150 rs892035    19758190     8 0.0292
16 19      319 rs3745101   53085813     2 0.0290
17 19      213 rs231228    36268771     9 0.0274
18 19      252 rs4803766   45371168     6 0.0272
19 19      146 rs885683    18244690    12 0.0266
20 19      164 rs12985572  28769462     6 0.0264
# ℹ 291 more rows
…
  dat <- vroom(...)
  problems(dat) 
Computing scaling factors for all variants... done.
Reading phenotype file... done.
0 individuals out of 24510 have missing phenotype.
Fitting sparse logistic regression with 24510 observations, 7564 variants and 1 covariates... done.
Extracting regression coefficients... Warning message:
The `x` argument of `as_tibble.matrix()` must have unique column names if
`.name_repair` is omitted as of tibble 2.0.0.
ℹ Using compatibility `.name_repair`. 
done.
Computing test statistics... `summarise()` has grouped output by 'CHR'. You can override using the `.groups`
argument.
done.
# A tibble: 400 × 6
   CHR   Group SNP.lead     BP.lead  Size       W
   <chr> <int> <chr>          <int> <int>   <dbl>
 1 19      413 rs3745516   50926742     4  0.214 
 2 19      123 rs2304256   10475652     2  0.0881
 3 19      432 rs273634    51718837     3  0.0567
 4 19      186 rs8109466   17207011     3  0.0509
 5 19      266 rs7259371   33534641     8  0.0480
 6 19      177 rs12710303  16282131     6  0.0413
 7 19       50 rs243335     4402017     2  0.0364
 8 19      187 rs2305767   17294296     6  0.0361
 9 19      441 rs7260152   52160305     6  0.0341
10 19      165 rs116923487 15133803     7  0.0320
11 19       18 rs10417628   2251817     1  0.0310
12 19      302 rs8108848   37019742     9 -0.0303
13 19       99 rs35277492   8201121     3 -0.0298
14 19      297 rs231228    36268771     8  0.0296
15 19      228 rs12985572  28769462     5  0.0296
16 19      486 rs17305311  54705641     1  0.0293
17 19      327 rs61750953  41306650     6  0.0287
18 19      283 rs8191371   34868776     1  0.0284
19 19      172 rs144011208 16024140     6 -0.0282
20 19      206 rs17216041  19366643     6  0.0280
# ℹ 380 more rows
…
  dat <- vroom(...)
  problems(dat) 
Computing scaling factors for all variants... done.
Reading phenotype file... done.
0 individuals out of 24510 have missing phenotype.
Fitting sparse logistic regression with 24510 observations, 7564 variants and 1 covariates... done.
Extracting regression coefficients... Warning message:
The `x` argument of `as_tibble.matrix()` must have unique column names if
`.name_repair` is omitted as of tibble 2.0.0.
ℹ Using compatibility `.name_repair`. 
done.
Computing test statistics... `summarise()` has grouped output by 'CHR'. You can override using the `.groups`
argument.
done.
# A tibble: 511 × 6
   CHR   Group SNP.lead     BP.lead  Size       W
   <chr> <int> <chr>          <int> <int>   <dbl>
 1 19      567 rs3745516   50926742     2  0.171 
 2 19      160 rs2304256   10475652     2  0.0892
 3 19      591 rs273634    51718837     2  0.0586
 4 19      566 rs1726801   50905074     2  0.0515
 5 19      241 rs8109466   17207011     3  0.0482
 6 19      361 rs10411210  33532300     8  0.0408
 7 19       60 rs243335     4402017     2  0.0394
 8 19      602 rs7260152   52160305     5  0.0358
 9 19       18 rs10417628   2251817     1  0.0323
10 19      449 rs61750953  41306650     5  0.0321
11 19      383 rs8191371   34868776     1  0.0310
12 19      303 rs12985572  28769462     5  0.0307
13 19      215 rs116923487 15133803     6  0.0290
14 19      224 rs144011208 16024140     7 -0.0285
15 19      243 rs2305767   17294296     2  0.0272
16 19      663 rs17305311  54705641     3  0.0266
17 19      435 rs1865093   39936134     4  0.0241
18 19      398 rs11084813  35923858     2  0.0241
19 19      522 rs12461639  48172671     6  0.0238
20 19       85 rs778805     5832209     4  0.0238
# ℹ 491 more rows
…
  dat <- vroom(...)
  problems(dat) 
Computing scaling factors for all variants... done.
Reading phenotype file... done.
0 individuals out of 24510 have missing phenotype.
Fitting sparse logistic regression with 24510 observations, 7564 variants and 1 covariates... done.
Extracting regression coefficients... Warning message:
The `x` argument of `as_tibble.matrix()` must have unique column names if
`.name_repair` is omitted as of tibble 2.0.0.
ℹ Using compatibility `.name_repair`. 
done.
Computing test statistics... `summarise()` has grouped output by 'CHR'. You can override using the `.groups`
argument.
done.
# A tibble: 667 × 6
   CHR   Group SNP.lead     BP.lead  Size       W
   <chr> <int> <chr>          <int> <int>   <dbl>
 1 19     1050 rs3745516   50926742     1  0.172 
 2 19      265 rs2304256   10475652     2  0.0870
 3 19     1088 rs273634    51718837     2  0.0578
 4 19     1049 rs1726801   50905074     2  0.0443
 5 19      416 rs8109466   17207011     1  0.0439
 6 19       86 rs243335     4402017     2  0.0368
 7 19      657 rs10411210  33532300     4  0.0304
 8 19     1202 rs17305311  54705641     3  0.0269
 9 19      695 rs8191371   34868776     2  0.0265
10 19      760 rs8102476   38735613     3  0.0258
11 19       68 rs45465594   3813906     1  0.0258
12 19      388 rs8110002   15963695     1  0.0257
13 19      419 rs2305767   17294296     2  0.0256
14 19      368 rs116923487 15133803     4  0.0250
15 19      722 rs11084813  35923858     1  0.0244
16 19      451 rs11666281  18234588     2 -0.0240
17 19      821 rs61750953  41306650     1  0.0236
18 19      948 rs11083846  47207654     2 -0.0229
19 19      471 rs892035    19758190     1  0.0224
20 19      108 rs263063     5022604     3 -0.0221
# ℹ 647 more rows
…
  dat <- vroom(...)
  problems(dat) 
Computing scaling factors for all variants... done.
Reading phenotype file... done.
0 individuals out of 24510 have missing phenotype.
Fitting sparse logistic regression with 24510 observations, 7564 variants and 1 covariates... done.
Extracting regression coefficients... Warning message:
The `x` argument of `as_tibble.matrix()` must have unique column names if
`.name_repair` is omitted as of tibble 2.0.0.
ℹ Using compatibility `.name_repair`. 
done.
Computing test statistics... `summarise()` has grouped output by 'CHR'. You can override using the `.groups`
argument.
done.
# A tibble: 1,079 × 6
   CHR   Group SNP.lead     BP.lead  Size       W
   <chr> <int> <chr>          <int> <int>   <dbl>
 1 19     3009 rs3745516   50926742     1  0.172 
 2 19      575 rs2304256   10475652     1  0.0715
 3 19     3008 rs1726801   50905074     2  0.0500
 4 19     1039 rs8109466   17207011     1  0.0446
 5 19     3094 rs273634    51718837     2  0.0382
 6 19       40 rs10417628   2251817     2  0.0316
 7 19     3362 rs17305311  54705641     2 -0.0313
 8 19     1950 rs8191371   34868776     2  0.0293
 9 19      110 rs45465594   3813906     1  0.0268
10 19      341 rs72558007   7762440     1  0.0246
11 19     2207 rs8102476   38735613     1  0.0240
12 19     2631 rs8108277   45205877     1  0.0220
13 19      866 rs116923487 15133803     1  0.0214
14 19       68 rs61754927   2917509     2  0.0214
15 19      145 rs243335     4402017     1  0.0206
16 19     2382 rs2233152   41281016     1  0.0201
17 19     2169 rs17248097  38303788     1 -0.0198
18 19      147 rs45597332   4433253     1  0.0198
19 19     2296 rs10407035  39913634     1 -0.0196
20 19     1846 rs7259371   33534641     1  0.0195
# ℹ 1,059 more rows
Test statistics written on:
/nobackup/proj/comet_kogwas/data/tmp/stats/stats_chr19_chr19_res0_stats.txt

----------------------------------------------------------------------------------------------------
Filtering the test statistics
----------------------------------------------------------------------------------------------------

Processing at resolution 6 ...

`summarise()` has grouped output by 'CHR', 'Group', 'SNP.lead', 'BP.lead',
'Size'. You can override using the `.groups` argument.
Selections:
# A tibble: 45 × 9
     CHR Group SNP.lead    BP.lead  Size      W   BP.min   BP.max BP.width
   <dbl> <dbl> <chr>         <dbl> <dbl>  <dbl>    <dbl>    <dbl>    <dbl>
 1    19    92 rs3745516  50926742     8 0.220  50699504 51040416   340912
 2    19    32 rs2304256  10475652    20 0.120  10219076 10608064   388988
 3    19    48 rs3761041  18183917    16 0.0758 18038782 18454825   416043
 4    19    45 rs8109466  17207011    10 0.0740 17108127 17469382   361255
 5    19    98 rs273634   51718837     6 0.0594 51676299 51894738   218439
 6    19    68 rs11084813 35923858    17 0.0543 35868773 36324324   455551
 7    19    43 rs12710303 16282131     9 0.0492 16282131 16797415   515284
 8    19    74 rs61750953 41306650    14 0.0485 41012190 41675162   662972
 9    19    41 rs8110002  15963695    26 0.0460 15235879 16072037   836158
10    19    50 rs892035   19758190    21 0.0417 19136541 20488698  1352157
# ℹ 35 more rows
Discoveries written on: results/results_chr19_chr19_res6_discoveries.txt
Test statistics written on: results/results_chr19_chr19_res6_stats.txt

Processing at resolution 5 ...

`summarise()` has grouped output by 'CHR', 'Group', 'SNP.lead', 'BP.lead',
'Size'. You can override using the `.groups` argument.
Selections:
# A tibble: 21 × 9
     CHR Group SNP.lead    BP.lead  Size      W   BP.min   BP.max BP.width
   <dbl> <dbl> <chr>         <dbl> <dbl>  <dbl>    <dbl>    <dbl>    <dbl>
 1    19   154 rs3745516  50926742     7 0.217  50855935 51040416   184481
 2    19    52 rs2304256  10475652    25 0.114  10219076 10608064   388988
 3    19   115 rs753420   36643695    26 0.0538 36643695 38411090  1767395
 4    19    74 rs8109466  17207011     4 0.0531 17108127 17212992   104865
 5    19   123 rs61750953 41306650    13 0.0510 41175149 41537698   362549
 6    19    53 rs1122608  11163601     9 0.0451 10668452 11170839   502387
 7    19    82 rs892035   19758190    12 0.0399 19136541 19863014   726473
 8    19   164 rs7260152  52160305     7 0.0387 52000187 52204942   204755
 9    19    71 rs12710303 16282131    10 0.0348 16282131 16426657   144526
10    19   169 rs3745101  53085813     7 0.0321 53034598 53233273   198675
# ℹ 11 more rows
Discoveries written on: results/results_chr19_chr19_res5_discoveries.txt
Test statistics written on: results/results_chr19_chr19_res5_stats.txt

Processing at resolution 4 ...

`summarise()` has grouped output by 'CHR', 'Group', 'SNP.lead', 'BP.lead',
'Size'. You can override using the `.groups` argument.
Selections:
# A tibble: 26 × 9
     CHR Group SNP.lead     BP.lead  Size      W   BP.min   BP.max BP.width
   <dbl> <dbl> <chr>          <dbl> <dbl>  <dbl>    <dbl>    <dbl>    <dbl>
 1    19   289 rs3745516   50926742     3 0.216  50855935 50926742    70807
 2    19    96 rs2304256   10475652    14 0.0925 10394792 10608064   213272
 3    19   135 rs8109466   17207011     2 0.0500 17148156 17212992    64836
 4    19   304 rs273634    51718837     5 0.0461 51676299 51769145    92846
 5    19   232 rs61750953  41306650     3 0.0422 41175149 41324684   149535
 6    19    39 rs243335     4402017     5 0.0413  4353174  4511181   158007
 7    19   193 rs7259371   33534641    11 0.0406 33532300 33680782   148482
 8    19    97 rs1122608   11163601     8 0.0366 10668452 11170839   502387
 9    19   122 rs116923487 15133803     6 0.0365 15131668 15174953    43285
10    19   311 rs7260152   52160305     6 0.0351 52155449 52204942    49493
# ℹ 16 more rows
…
