…
  dat <- vroom(...)
  problems(dat) 
Computing scaling factors for all variants... done.
Reading phenotype file... done.
0 individuals out of 24510 have missing phenotype.
Fitting sparse logistic regression with 24510 observations, 16980 variants and 1 covariates... done.
Extracting regression coefficients... Warning message:
The `x` argument of `as_tibble.matrix()` must have unique column names if
`.name_repair` is omitted as of tibble 2.0.0.
ℹ Using compatibility `.name_repair`. 
done.
Computing test statistics... `summarise()` has grouped output by 'CHR'. You can override using the `.groups`
argument.
done.
# A tibble: 136 × 6
   CHR   Group SNP.lead     BP.lead  Size       W
   <chr> <int> <chr>          <int> <int>   <dbl>
 1 14      131 rs8017161  103563195    13  0.210 
 2 14      107 rs737522    93014672    11  0.123 
 3 14       70 rs3784099   68749927    19  0.103 
 4 14       36 rs712314    35408548    26  0.0712
 5 14       72 rs1275824   70194563    20  0.0614
 6 14       97 rs12883250  88446876    20  0.0610
 7 14      110 rs11621961  94769476    12  0.0580
 8 14      103 rs1286083   91442779    14  0.0571
 9 14      130 rs62000389 102912150    16  0.0474
10 14       62 rs755011    59815040    26  0.0426
11 14       69 rs6573638   66328997    15  0.0395
12 14       28 rs2300835   33207522    12  0.0387
13 14       90 rs11623789  82450632    17  0.0382
14 14      135 rs3924892  105494262    10  0.0365
15 14        7 rs3748366   22204911    22  0.0333
16 14        2 rs1243647   21024619     5 -0.0327
17 14       37 rs696       35871093    18  0.0319
18 14       85 rs177143    78590808    25  0.0315
19 14      113 rs8007366   95705236    14 -0.0306
20 14       51 rs1002132   52285373    20  0.0304
# ℹ 116 more rows
…
  dat <- vroom(...)
  problems(dat) 
Computing scaling factors for all variants... done.
Reading phenotype file... done.
0 individuals out of 24510 have missing phenotype.
Fitting sparse logistic regression with 24510 observations, 16980 variants and 1 covariates... done.
Extracting regression coefficients... Warning message:
The `x` argument of `as_tibble.matrix()` must have unique column names if
`.name_repair` is omitted as of tibble 2.0.0.
ℹ Using compatibility `.name_repair`. 
done.
Computing test statistics... `summarise()` has grouped output by 'CHR'. You can override using the `.groups`
argument.
done.
# A tibble: 230 × 6
   CHR   Group SNP.lead     BP.lead  Size       W
   <chr> <int> <chr>          <int> <int>   <dbl>
 1 14      240 rs8017161  103563195    13  0.201 
 2 14      129 rs3784099   68749927    10  0.119 
 3 14      195 rs17184313  93102251     5  0.0780
 4 14       62 rs712314    35408548    19  0.0678
 5 14       63 rs696       35871093     6  0.0628
 6 14      200 rs11621961  94769476     9  0.0619
 7 14      194 rs737522    93014672     4  0.0411
 8 14      239 rs62000389 102912150    12  0.0379
 9 14      111 rs311864    59214542     3 -0.0376
10 14       13 rs3748366   22204911    15  0.0347
11 14      246 rs3924892  105494262     7  0.0330
12 14      178 rs12883250  88446876    10  0.0314
13 14      164 rs11623789  82450632    13  0.0311
14 14      120 rs8005319   63822521     6  0.0310
15 14       86 rs7146952   49773025    12  0.0302
16 14      188 rs1286083   91442779     6  0.0300
17 14      179 rs1287662   89290630    17  0.0300
18 14      141 rs2526896   73055107     7  0.0285
19 14       49 rs2300835   33207522     6  0.0278
20 14      131 rs12050161  69360631    12  0.0275
# ℹ 210 more rows
…
  dat <- vroom(...)
  problems(dat) 
Computing scaling factors for all variants... done.
Reading phenotype file... done.
0 individuals out of 24510 have missing phenotype.
Fitting sparse logistic regression with 24510 observations, 16980 variants and 1 covariates... done.
Extracting regression coefficients... Warning message:
The `x` argument of `as_tibble.matrix()` must have unique column names if
`.name_repair` is omitted as of tibble 2.0.0.
ℹ Using compatibility `.name_repair`. 
done.
Computing test statistics... `summarise()` has grouped output by 'CHR'. You can override using the `.groups`
argument.
done.
# A tibble: 401 × 6
   CHR   Group SNP.lead      BP.lead  Size       W
   <chr> <int> <chr>           <int> <int>   <dbl>
 1 14      471 rs8017161   103563195     7  0.191 
 2 14      257 rs3784099    68749927    11  0.116 
 3 14      384 rs17184313   93102251     5  0.0806
 4 14      396 rs11621961   94769476     5  0.0590
 5 14      468 rs118141823 102900956     5  0.0411
 6 14      124 rs712314     35408548    14  0.0381
 7 14      125 rs696        35871093     8  0.0371
 8 14      243 rs8005319    63822521     5  0.0333
 9 14      354 rs1287662    89290630    14  0.0321
10 14       26 rs3748366    22204911     4  0.0315
11 14      376 rs2202955    92118160     3  0.0299
12 14      287 rs2193596    75234101     4  0.0297
13 14       98 rs2300835    33207522     2  0.0294
14 14      278 rs994759     73096614     4  0.0293
15 14      324 rs11623789   82450632     5  0.0293
16 14      304 rs17811635   77573757     2  0.0268
17 14      295 rs17783366   76543004     7  0.0262
18 14       71 rs17112865   28038607     9  0.0250
19 14      139 rs2415482    38958967     7  0.0244
20 14      319 rs4899767    80862160     4 -0.0237
# ℹ 381 more rows
…
  dat <- vroom(...)
  problems(dat) 
Computing scaling factors for all variants... done.
Reading phenotype file... done.
0 individuals out of 24510 have missing phenotype.
Fitting sparse logistic regression with 24510 observations, 16980 variants and 1 covariates... done.
Extracting regression coefficients... Warning message:
The `x` argument of `as_tibble.matrix()` must have unique column names if
`.name_repair` is omitted as of tibble 2.0.0.
ℹ Using compatibility `.name_repair`. 
done.
Computing test statistics... `summarise()` has grouped output by 'CHR'. You can override using the `.groups`
argument.
done.
# A tibble: 494 × 6
   CHR   Group SNP.lead     BP.lead  Size       W
   <chr> <int> <chr>          <int> <int>   <dbl>
 1 14      719 rs8017161  103563195     6  0.181 
 2 14      392 rs3784099   68749927     3  0.0927
 3 14      585 rs17184313  93102251     7  0.0766
 4 14      601 rs11621961  94769476     4  0.0584
 5 14      183 rs696       35871093     5  0.0449
 6 14      584 rs737522    93014672     4  0.0406
 7 14      496 rs11623789  82450632     6  0.0360
 8 14      181 rs712314    35408548    11  0.0355
 9 14      539 rs12883250  88446876     8  0.0345
10 14      369 rs8005319   63822521     5  0.0318
11 14      143 rs2300835   33207522     2  0.0302
12 14      438 rs2193596   75234101     4  0.0298
13 14       42 rs4572291   22573443     2 -0.0296
14 14      574 rs2202955   92118160     4  0.0294
15 14       37 rs3748366   22204911     4  0.0294
16 14      338 rs311864    59214542     1 -0.0289
17 14      461 rs17811635  77573757     1  0.0269
18 14      448 rs17783366  76543004     5  0.0258
19 14      237 rs1959379   44974966     7  0.0258
20 14      393 rs10132294  68887667     8  0.0254
# ℹ 474 more rows
…
  dat <- vroom(...)
  problems(dat) 
Computing scaling factors for all variants... done.
Reading phenotype file... done.
0 individuals out of 24510 have missing phenotype.
Fitting sparse logistic regression with 24510 observations, 16980 variants and 1 covariates... done.
Extracting regression coefficients... Warning message:
The `x` argument of `as_tibble.matrix()` must have unique column names if
`.name_repair` is omitted as of tibble 2.0.0.
ℹ Using compatibility `.name_repair`. 
done.
Computing test statistics... `summarise()` has grouped output by 'CHR'. You can override using the `.groups`
argument.
done.
# A tibble: 652 × 6
   CHR   Group SNP.lead     BP.lead  Size       W
   <chr> <int> <chr>          <int> <int>   <dbl>
 1 14     1051 rs8017161  103563195     3  0.172 
 2 14      573 rs3784099   68749927     4  0.0920
 3 14      862 rs17184313  93102251     4  0.0786
 4 14      883 rs11621961  94769476     1  0.0437
 5 14      255 rs696       35871093     4  0.0435
 6 14      859 rs737522    93014672     3  0.0429
 7 14      202 rs2300835   33207522     2  0.0316
 8 14      845 rs2202955   92118160     2  0.0313
 9 14     1045 rs62000389 102912150     4  0.0303
10 14      648 rs2193596   75234101     3  0.0302
11 14       29 rs17308541  21210166     3 -0.0301
12 14      626 rs2526896   73055107     5  0.0285
13 14      355 rs10151181  48277322     1 -0.0273
14 14      252 rs712314    35408548     7  0.0271
15 14      681 rs17811635  77573757     1  0.0268
16 14      797 rs12883250  88446876     7  0.0265
17 14      336 rs1959379   44974966     7  0.0265
18 14      664 rs17783366  76543004     6  0.0251
19 14      370 rs7146952   49773025     5 -0.0249
20 14       51 rs3748366   22204911     2  0.0247
# ℹ 632 more rows
…
  dat <- vroom(...)
  problems(dat) 
Computing scaling factors for all variants... done.
Reading phenotype file... done.
0 individuals out of 24510 have missing phenotype.
Fitting sparse logistic regression with 24510 observations, 16980 variants and 1 covariates... done.
Extracting regression coefficients... Warning message:
The `x` argument of `as_tibble.matrix()` must have unique column names if
`.name_repair` is omitted as of tibble 2.0.0.
ℹ Using compatibility `.name_repair`. 
done.
Computing test statistics... `summarise()` has grouped output by 'CHR'. You can override using the `.groups`
argument.
done.
# A tibble: 823 × 6
   CHR   Group SNP.lead     BP.lead  Size       W
   <chr> <int> <chr>          <int> <int>   <dbl>
 1 14     2305 rs8017161  103563195     1  0.133 
 2 14     1274 rs3784099   68749927     1  0.0690
 3 14     1927 rs737522    93014672     2  0.0432
 4 14      498 rs696       35871093     2  0.0415
 5 14     2294 rs62000389 102912150     2  0.0329
 6 14     1931 rs17184313  93102251     5  0.0299
 7 14     2306 rs7145735  103584674     2  0.0297
 8 14     1448 rs2193596   75234101     4  0.0294
 9 14     1732 rs10149105  85615940     1 -0.0272
10 14       96 rs3748366   22204911     1  0.0258
11 14     1275 rs9323505   68786787     2  0.0243
12 14     1651 rs11623789  82450632     1  0.0242
13 14     1896 rs2202955   92118160     4  0.0241
14 14     1280 rs10132294  68887667     2  0.0240
15 14      211 rs12880667  25315877     3 -0.0236
16 14     1478 rs17783366  76543004     3  0.0234
17 14       54 rs17308541  21210166     3 -0.0218
18 14     1178 rs8005319   63822521     2  0.0209
19 14      489 rs712314    35408548     3  0.0200
20 14     2341 rs3924892  105494262     3  0.0199
# ℹ 803 more rows
…
  dat <- vroom(...)
  problems(dat) 
Computing scaling factors for all variants... done.
Reading phenotype file... done.
0 individuals out of 24510 have missing phenotype.
Fitting sparse logistic regression with 24510 observations, 16980 variants and 1 covariates... done.
Extracting regression coefficients... Warning message:
The `x` argument of `as_tibble.matrix()` must have unique column names if
`.name_repair` is omitted as of tibble 2.0.0.
ℹ Using compatibility `.name_repair`. 
done.
Computing test statistics... `summarise()` has grouped output by 'CHR'. You can override using the `.groups`
argument.
done.
# A tibble: 1,221 × 6
   CHR   Group SNP.lead     BP.lead  Size       W
   <chr> <int> <chr>          <int> <int>   <dbl>
 1 14     8374 rs8017161  103563195     1  0.135 
 2 14     7290 rs737522    93014672     2  0.0407
 3 14     4774 rs3784099   68749927     2  0.0406
 4 14     7307 rs17184313  93102251     2  0.0346
 5 14     1511 rs712314    35408548     1  0.0343
 6 14     1568 rs696       35871093     1  0.0311
 7 14     7168 rs2202955   92118160     1 -0.0306
 8 14     5457 rs2193596   75234101     1  0.0276
 9 14     6251 rs11623789  82450632     1  0.0265
10 14      255 rs3748366   22204911     1  0.0262
11 14     1277 rs2300835   33207522     1  0.0242
12 14     3120 rs7152036   52331224     1 -0.0235
13 14     7121 rs1286077   91446384     1 -0.0232
14 14     7845 rs10145396  97255679     1 -0.0222
15 14     1758 rs177899    38139214     2 -0.0217
16 14      142 rs3827903   21211315     1 -0.0217
17 14     7073 rs10147469  91043669     1 -0.0211
18 14     7453 rs11621961  94769476     2  0.0194
19 14     6915 rs1287662   89290630     1  0.0191
20 14     5205 rs847342    72736038     1 -0.0180
# ℹ 1,201 more rows
…
`summarise()` has grouped output by 'CHR', 'Group', 'SNP.lead', 'BP.lead',
'Size'. You can override using the `.groups` argument.
Selections:
# A tibble: 0 × 9
# ℹ 9 variables: CHR <dbl>, Group <dbl>, SNP.lead <chr>, BP.lead <dbl>,
#   Size <dbl>, W <dbl>, BP.min <dbl>, BP.max <dbl>, BP.width <dbl>
Discoveries written on: results/results_chr14_chr14_res5_discoveries.txt
Test statistics written on: results/results_chr14_chr14_res5_stats.txt

Processing at resolution 4 ...

`summarise()` has grouped output by 'CHR', 'Group', 'SNP.lead', 'BP.lead',
'Size'. You can override using the `.groups` argument.
Selections:
# A tibble: 23 × 9
     CHR Group SNP.lead      BP.lead  Size      W    BP.min    BP.max BP.width
   <dbl> <dbl> <chr>           <dbl> <dbl>  <dbl>     <dbl>     <dbl>    <dbl>
 1    14   471 rs8017161   103563195     7 0.191  103404159 103584674   180515
 2    14   257 rs3784099    68749927    11 0.116   68749927  68963746   213819
 3    14   384 rs17184313   93102251     5 0.0806  93064069  93118038    53969
 4    14   396 rs11621961   94769476     5 0.0590  94769476  94847415    77939
 5    14   468 rs118141823 102900956     5 0.0411 102347792 102933347   585555
 6    14   124 rs712314     35408548    14 0.0381  35390146  35853388   463242
 7    14   125 rs696        35871093     8 0.0371  35871093  36304368   433275
 8    14   243 rs8005319    63822521     5 0.0333  63777253  63857808    80555
 9    14   354 rs1287662    89290630    14 0.0321  88798458  89393381   594923
10    14    26 rs3748366    22204911     4 0.0315  22091105  22204911   113806
# ℹ 13 more rows
…
