…
  dat <- vroom(...)
  problems(dat) 
Computing scaling factors for all variants... done.
Reading phenotype file... done.
0 individuals out of 24510 have missing phenotype.
Fitting sparse logistic regression with 24510 observations, 10720 variants and 1 covariates... done.
Extracting regression coefficients... Warning message:
The `x` argument of `as_tibble.matrix()` must have unique column names if
`.name_repair` is omitted as of tibble 2.0.0.
ℹ Using compatibility `.name_repair`. 
done.
Computing test statistics... `summarise()` has grouped output by 'CHR'. You can override using the `.groups`
argument.
done.
# A tibble: 137 × 6
   CHR   Group SNP.lead    BP.lead  Size       W
   <chr> <int> <chr>         <int> <int>   <dbl>
 1 17       65 rs9303277  37976469    24  0.141 
 2 17       72 rs199533   44828931    21  0.0732
 3 17       74 rs3826397  46509447    20  0.0697
 4 17       83 rs7207114  53434046    12  0.0412
 5 17       90 rs1292053  57963537    20  0.0409
 6 17       73 rs2292700  45362423    13  0.0373
 7 17       61 rs12941866 34900120     5  0.0371
 8 17      108 rs12451606 70023827    14  0.0340
 9 17        6 rs58337165  1684605     5  0.0334
10 17       57 rs891754   32810443    16 -0.0318
11 17       14 rs3786046   4920360    24  0.0315
12 17       21 rs12952489  8241891    13  0.0294
13 17       94 rs6504191  62041068    10  0.0294
14 17       86 rs7224488  54868625     4 -0.0286
15 17      135 rs999977   78606412    14  0.0278
16 17       80 rs10514997 50299021     8  0.0278
17 17       50 rs4470197  28464474     9  0.0268
18 17      132 rs7216806  77538517     1  0.0259
19 17      104 rs8071899  67930946     8  0.0257
20 17      105 rs12150382 68222772    15  0.0252
# ℹ 117 more rows
…
  dat <- vroom(...)
  problems(dat) 
Computing scaling factors for all variants... done.
Reading phenotype file... done.
0 individuals out of 24510 have missing phenotype.
Fitting sparse logistic regression with 24510 observations, 10720 variants and 1 covariates... done.
Extracting regression coefficients... Warning message:
The `x` argument of `as_tibble.matrix()` must have unique column names if
`.name_repair` is omitted as of tibble 2.0.0.
ℹ Using compatibility `.name_repair`. 
done.
Computing test statistics... `summarise()` has grouped output by 'CHR'. You can override using the `.groups`
argument.
done.
# A tibble: 197 × 6
   CHR   Group SNP.lead    BP.lead  Size       W
   <chr> <int> <chr>         <int> <int>   <dbl>
 1 17      117 rs9303277  37976469    16  0.156 
 2 17      130 rs3826397  46509447    10  0.0809
 3 17      129 rs2292700  45362423     9  0.0451
 4 17       23 rs3786046   4920360     7  0.0379
 5 17      147 rs7207114  53434046     5  0.0376
 6 17      166 rs6504191  62041068     3  0.0359
 7 17      109 rs12941866 34900120     3  0.0343
 8 17        9 rs58337165  1684605     4  0.0312
 9 17      115 rs923370   37010150     3 -0.0273
10 17      192 rs12451606 70023827    13  0.0268
11 17       37 rs2304911   8050979     7  0.0258
12 17      160 rs1292053  57963537    12  0.0245
13 17      234 rs7216806  77538517     2  0.0245
14 17      127 rs1230103  43485791    10  0.0243
15 17      185 rs8071899  67930946     3  0.0240
16 17      141 rs10514997 50299021     5  0.0214
17 17      242 rs7342974  79483999     4  0.0205
18 17      228 rs7218605  76811803     3  0.0204
19 17      202 rs2661611  71708855     6  0.0203
20 17       33 rs2270981   7216540     4  0.0199
# ℹ 177 more rows
…
  dat <- vroom(...)
  problems(dat) 
Computing scaling factors for all variants... done.
Reading phenotype file... done.
0 individuals out of 24510 have missing phenotype.
Fitting sparse logistic regression with 24510 observations, 6374 variants and 1 covariates... done.
Extracting regression coefficients... Warning message:
The `x` argument of `as_tibble.matrix()` must have unique column names if
`.name_repair` is omitted as of tibble 2.0.0.
ℹ Using compatibility `.name_repair`. 
done.
Computing test statistics... `summarise()` has grouped output by 'CHR'. You can override using the `.groups`
argument.
done.
# A tibble: 192 × 6
   CHR   Group SNP.lead    BP.lead  Size       W
   <chr> <int> <chr>         <int> <int>   <dbl>
 1 21      127 rs2834109  34521087     8  0.0410
 2 21      222 rs7283760  45640629     5  0.0397
 3 21      104 rs2832310  30768350     9  0.0305
 4 21      146 rs2835076  37043885    10 -0.0259
 5 21      194 rs2280807  42821265     3  0.0252
 6 21      109 rs565489   31523734     3  0.0242
 7 21       20 rs1449525  17762328     5  0.0212
 8 21      123 rs16989559 33974322     6 -0.0211
 9 21       24 rs2824098  18235587     6  0.0199
10 21       63 rs2827079  23196432     9  0.0165
11 21      163 rs2836447  39873981     3 -0.0157
12 21      156 rs928723   38970666    10 -0.0152
13 21      102 rs2831772  29772530     7  0.0151
14 21      161 rs2211860  39552192    10  0.0149
15 21      110 rs2832660  31593066     2  0.0136
16 21      134 rs2834440  35690499     2 -0.0133
17 21      114 rs762194   32493031     3  0.0133
18 21      173 rs447480   41221971     6  0.0128
19 21      128 rs9981243  34594878     4  0.0127
20 21      238 rs2839315  47962186     5  0.0123
# ℹ 172 more rows
…
  dat <- vroom(...)
  problems(dat) 
Computing scaling factors for all variants... done.
Reading phenotype file... done.
0 individuals out of 24510 have missing phenotype.
Fitting sparse logistic regression with 24510 observations, 6374 variants and 1 covariates... done.
Extracting regression coefficients... Warning message:
The `x` argument of `as_tibble.matrix()` must have unique column names if
`.name_repair` is omitted as of tibble 2.0.0.
ℹ Using compatibility `.name_repair`. 
done.
Computing test statistics... `summarise()` has grouped output by 'CHR'. You can override using the `.groups`
argument.
done.
# A tibble: 242 × 6
   CHR   Group SNP.lead    BP.lead  Size       W
   <chr> <int> <chr>         <int> <int>   <dbl>
 1 21      333 rs7283760  45640629     4  0.0404
 2 21      191 rs2834109  34521087     2  0.0358
 3 21      163 rs565489   31523734     3  0.0232
 4 21      155 rs2832310  30768350     1  0.0216
 5 21       26 rs1449525  17762328     6  0.0198
 6 21      292 rs2280807  42821265     7  0.0196
 7 21      261 rs447480   41221971     5  0.0152
 8 21      219 rs4817726  36943564     7  0.0145
 9 21      321 rs3737434  44437142     8  0.0143
10 21      185 rs7284048  33964537     2 -0.0137
11 21      170 rs762194   32493031     3  0.0136
12 21       86 rs2826823  22760547     1 -0.0135
13 21      103 rs12483180 24720653     3  0.0135
14 21      354 rs2839315  47962186     6  0.0134
15 21      238 rs9983351  39176328     8 -0.0134
16 21      152 rs2831772  29772530     5  0.0128
17 21      253 rs9979861  40389724     3 -0.0115
18 21      241 rs2836074  39346333     2  0.0113
19 21       31 rs2824098  18235587     3  0.0107
20 21      303 rs220229   43448797     1  0.0106
# ℹ 222 more rows
…
  dat <- vroom(...)
  problems(dat) 
Computing scaling factors for all variants... done.
Reading phenotype file... done.
0 individuals out of 24510 have missing phenotype.
Fitting sparse logistic regression with 24510 observations, 6374 variants and 1 covariates... done.
Extracting regression coefficients... Warning message:
The `x` argument of `as_tibble.matrix()` must have unique column names if
`.name_repair` is omitted as of tibble 2.0.0.
ℹ Using compatibility `.name_repair`. 
done.
Computing test statistics... `summarise()` has grouped output by 'CHR'. You can override using the `.groups`
argument.
done.
# A tibble: 297 × 6
   CHR   Group SNP.lead    BP.lead  Size        W
   <chr> <int> <chr>         <int> <int>    <dbl>
 1 21      472 rs7283760  45640629     4  0.0396 
 2 21      390 rs16999738 41780398     2 -0.0375 
 3 21      278 rs2834109  34521087     3  0.0351 
 4 21      239 rs565489   31523734     3  0.0233 
 5 21      228 rs2832310  30768350     1  0.0211 
 6 21      219 rs2831503  29481474     1  0.0187 
 7 21       82 rs444223   20300576     1 -0.0160 
 8 21      295 rs11911509 35841740     3 -0.0151 
 9 21      284 rs9978223  34770358     3 -0.0148 
10 21      373 rs447480   41221971     6  0.0146 
11 21      250 rs762194   32493031     3  0.0131 
12 21      240 rs2832660  31593066     1  0.0130 
13 21       43 rs2824098  18235587     4  0.0128 
14 21      440 rs692544   43759441     5 -0.0119 
15 21      417 rs2280807  42821265     4  0.0116 
16 21      456 rs3737434  44437142     6  0.0108 
17 21      222 rs2831772  29772530     8  0.0107 
18 21      348 rs2836074  39346333     1  0.0103 
19 21      431 rs220229   43448797     1  0.00999
20 21       38 rs1449525  17762328     3  0.00986
# ℹ 277 more rows
…
