…
  dat <- vroom(...)
  problems(dat) 
Computing scaling factors for all variants... done.
Reading phenotype file... done.
0 individuals out of 24510 have missing phenotype.
Fitting sparse logistic regression with 24510 observations, 5482 variants and 1 covariates... done.
Extracting regression coefficients... Warning message:
The `x` argument of `as_tibble.matrix()` must have unique column names if
`.name_repair` is omitted as of tibble 2.0.0.
ℹ Using compatibility `.name_repair`. 
done.
Computing test statistics... `summarise()` has grouped output by 'CHR'. You can override using the `.groups`
argument.
done.
# A tibble: 76 × 6
   CHR   Group SNP.lead    BP.lead  Size       W
   <chr> <int> <chr>         <int> <int>   <dbl>
 1 22       49 rs2076125  39711351    19  0.213 
 2 22       50 rs34030679 42610099    48  0.125 
 3 22       76 rs140522   50971266    25  0.0569
 4 22       45 rs2284033  37534034    16  0.0550
 5 22       32 rs1002189  30771458    11  0.0526
 6 22        9 rs7291930  20876509     4  0.0478
 7 22       11 rs1210606  21452237     4  0.0433
 8 22        5 rs5748167  19370586    15  0.0380
 9 22       53 rs2267597  44427612    13  0.0347
10 22       17 rs1041749  24846391    11  0.0346
11 22       70 rs12158344 49214032    13  0.0340
12 22       46 rs2284051  37710569     9  0.0327
13 22       64 rs4476     47440669     8  0.0324
14 22        3 rs439231   18319179     9  0.0302
15 22       15 rs5759742  23700907     5  0.0270
16 22       31 rs132369   29603611    26  0.0266
17 22        7 rs2239395  19962203    26  0.0241
18 22       63 rs13057352 47095235     5  0.0228
19 22       27 rs738156   27561500     9 -0.0220
20 22       40 rs4820201  35970204     6  0.0215
# ℹ 56 more rows
…
  dat <- vroom(...)
  problems(dat) 
Computing scaling factors for all variants... done.
Reading phenotype file... done.
0 individuals out of 24510 have missing phenotype.
Fitting sparse logistic regression with 24510 observations, 5482 variants and 1 covariates... done.
Extracting regression coefficients... Warning message:
The `x` argument of `as_tibble.matrix()` must have unique column names if
`.name_repair` is omitted as of tibble 2.0.0.
ℹ Using compatibility `.name_repair`. 
done.
Computing test statistics... `summarise()` has grouped output by 'CHR'. You can override using the `.groups`
argument.
done.
# A tibble: 125 × 6
   CHR   Group SNP.lead    BP.lead  Size       W
   <chr> <int> <chr>         <int> <int>   <dbl>
 1 22       81 rs2076125  39711351     9  0.136 
 2 22       84 rs34030679 42610099    31  0.0805
 3 22       74 rs2284033  37534034     6  0.0501
 4 22       16 rs7291930  20876509     3  0.0476
 5 22      131 rs140522   50971266     9  0.0441
 6 22       19 rs1210606  21452237     3  0.0417
 7 22       82 rs2294360  39897792    12  0.0404
 8 22       11 rs5748167  19370586     7  0.0401
 9 22       28 rs1041749  24846391    12  0.0321
10 22       24 rs5759742  23700907     2  0.0278
11 22       53 rs1002189  30771458     8  0.0265
12 22      108 rs13057352 47095235     3  0.0228
13 22       31 rs5760863  25510459     5 -0.0227
14 22       50 rs4823003  29410232     9  0.0219
15 22        7 rs439231   18319179     9  0.0201
16 22       43 rs738156   27561500    11 -0.0201
17 22       55 rs5994466  32518130    21  0.0200
18 22      109 rs4476     47440669     4  0.0199
19 22       76 rs2284051  37710569     3  0.0197
20 22       35 rs8139900  26394724     4  0.0196
# ℹ 105 more rows
…
  dat <- vroom(...)
  problems(dat) 
Computing scaling factors for all variants... done.
Reading phenotype file... done.
0 individuals out of 24510 have missing phenotype.
Fitting sparse logistic regression with 24510 observations, 5482 variants and 1 covariates... done.
Extracting regression coefficients... Warning message:
The `x` argument of `as_tibble.matrix()` must have unique column names if
`.name_repair` is omitted as of tibble 2.0.0.
ℹ Using compatibility `.name_repair`. 
done.
Computing test statistics... `summarise()` has grouped output by 'CHR'. You can override using the `.groups`
argument.
done.
# A tibble: 201 × 6
   CHR   Group SNP.lead    BP.lead  Size       W
   <chr> <int> <chr>         <int> <int>   <dbl>
 1 22      157 rs2076125  39711351     6  0.146 
 2 22      163 rs34030679 42610099    22  0.117 
 3 22      158 rs2294360  39897792     8  0.0601
 4 22      139 rs2284033  37534034     2  0.0493
 5 22       26 rs7291930  20876509     3  0.0463
 6 22       18 rs5748167  19370586    10  0.0403
 7 22       31 rs1210606  21452237     3  0.0375
 8 22       23 rs9606241  20075858    15  0.0366
 9 22      248 rs140522   50971266    13  0.0324
10 22       91 rs4823003  29410232    11  0.0289
11 22       48 rs1041749  24846391    14  0.0240
12 22      109 rs16992276 33801983     6  0.0231
13 22      205 rs13057352 47095235     4  0.0218
14 22      247 rs11555194 50876662     7  0.0218
15 22      124 rs4820201  35970204     2  0.0215
16 22      174 rs2267597  44427612     1  0.0214
17 22       99 rs5994466  32518130     7  0.0211
18 22       98 rs2413054  31904170    17 -0.0206
19 22       94 rs2857651  30075052     4  0.0199
20 22      116 rs204276   34744069     4  0.0198
# ℹ 181 more rows
…
  dat <- vroom(...)
  problems(dat) 
Computing scaling factors for all variants... done.
Reading phenotype file... done.
0 individuals out of 24510 have missing phenotype.
Fitting sparse logistic regression with 24510 observations, 5482 variants and 1 covariates... done.
Extracting regression coefficients... Warning message:
The `x` argument of `as_tibble.matrix()` must have unique column names if
`.name_repair` is omitted as of tibble 2.0.0.
ℹ Using compatibility `.name_repair`. 
done.
Computing test statistics... `summarise()` has grouped output by 'CHR'. You can override using the `.groups`
argument.
done.
# A tibble: 282 × 6
   CHR   Group SNP.lead    BP.lead  Size       W
   <chr> <int> <chr>         <int> <int>   <dbl>
 1 22      231 rs2076125  39711351     8  0.147 
 2 22      142 rs1002189  30771458     5  0.0614
 3 22      233 rs2294360  39897792     5  0.0559
 4 22      207 rs2284033  37534034     2  0.0487
 5 22       40 rs7291930  20876509     4  0.0432
 6 22       47 rs1210606  21452237     4  0.0401
 7 22      241 rs34030679 42610099     5  0.0322
 8 22       27 rs5748167  19370586     5  0.0292
 9 22      148 rs2236033  32001050    17 -0.0289
10 22      368 rs11555194 50876662     7  0.0261
11 22      239 rs132902   41797758    10  0.0260
12 22      149 rs5994466  32518130     3  0.0251
13 22      305 rs13057352 47095235     3  0.0236
14 22      137 rs4823003  29410232    10  0.0230
15 22       72 rs1041749  24846391     7  0.0207
16 22       92 rs8139900  26394724     4  0.0206
17 22      110 rs5761777  27227454     4 -0.0204
18 22      240 rs9607852  42258272     7  0.0203
19 22      102 rs5752327  26844070     4  0.0193
20 22      136 rs7292859  28368266     5 -0.0175
# ℹ 262 more rows
…
  dat <- vroom(...)
  problems(dat) 
Computing scaling factors for all variants... done.
Reading phenotype file... done.
0 individuals out of 24510 have missing phenotype.
Fitting sparse logistic regression with 24510 observations, 5482 variants and 1 covariates... done.
Extracting regression coefficients... Warning message:
The `x` argument of `as_tibble.matrix()` must have unique column names if
`.name_repair` is omitted as of tibble 2.0.0.
ℹ Using compatibility `.name_repair`. 
done.
Computing test statistics... `summarise()` has grouped output by 'CHR'. You can override using the `.groups`
argument.
done.
# A tibble: 340 × 6
   CHR   Group SNP.lead    BP.lead  Size       W
   <chr> <int> <chr>         <int> <int>   <dbl>
 1 22      326 rs2076125  39711351     9  0.132 
 2 22      194 rs1002189  30771458     6  0.0600
 3 22      294 rs2284033  37534034     2  0.0514
 4 22       64 rs1210606  21452237     1  0.0404
 5 22       54 rs7291930  20876509     4  0.0399
 6 22       66 rs463426   21809185     2 -0.0373
 7 22      337 rs139480   41626663     5 -0.0322
 8 22      514 rs11555194 50876662     7  0.0299
 9 22      341 rs34030679 42610099     4  0.0294
10 22      206 rs16989291 31971282     6 -0.0274
11 22      145 rs10483127 27222286     4 -0.0258
12 22      208 rs5994466  32518130     5  0.0253
13 22      125 rs8139900  26394724     3  0.0249
14 22       37 rs5748167  19370586     3  0.0248
15 22      266 rs4820201  35970204     4  0.0236
16 22       23 rs439231   18319179     2  0.0220
17 22      366 rs2073080  44394402     8 -0.0219
18 22      113 rs1207592  25897330     7 -0.0215
19 22      428 rs13057352 47095235     2  0.0206
20 22       96 rs1041749  24846391     7  0.0203
# ℹ 320 more rows
…
  dat <- vroom(...)
  problems(dat) 
Computing scaling factors for all variants... done.
Reading phenotype file... done.
0 individuals out of 24510 have missing phenotype.
Fitting sparse logistic regression with 24510 observations, 5482 variants and 1 covariates... done.
Extracting regression coefficients... Warning message:
The `x` argument of `as_tibble.matrix()` must have unique column names if
`.name_repair` is omitted as of tibble 2.0.0.
ℹ Using compatibility `.name_repair`. 
done.
Computing test statistics... `summarise()` has grouped output by 'CHR'. You can override using the `.groups`
argument.
done.
# A tibble: 427 × 6
   CHR   Group SNP.lead    BP.lead  Size       W
   <chr> <int> <chr>         <int> <int>   <dbl>
 1 22      601 rs2076125  39711351     5  0.101 
 2 22      540 rs2284033  37534034     2  0.0479
 3 22      346 rs1002189  30771458     3  0.0437
 4 22      107 rs1210606  21452237     1  0.0396
 5 22      600 rs968451   39670851     3  0.0390
 6 22       94 rs7291930  20876509     2  0.0361
 7 22      629 rs9607852  42258272     3  0.0334
 8 22      635 rs34030679 42610099     2  0.0303
 9 22       82 rs2531708  20017445     2 -0.0289
10 22      602 rs5757670  39829736     3 -0.0282
11 22      623 rs139461   41611460     1 -0.0251
12 22       58 rs5748167  19370586     2  0.0248
13 22      943 rs140522   50971266     2  0.0245
14 22      380 rs5994466  32518130     4  0.0234
15 22      396 rs11703151 32849712     3 -0.0232
16 22      493 rs4820201  35970204     5  0.0232
17 22      940 rs11555194 50876662     4  0.0225
18 22      626 rs132902   41797758     1  0.0212
19 22      688 rs2267597  44427612     2  0.0209
20 22      347 rs5997637  30794950     2  0.0201
# ℹ 407 more rows
…
  dat <- vroom(...)
  problems(dat) 
Computing scaling factors for all variants... done.
Reading phenotype file... done.
0 individuals out of 24510 have missing phenotype.
Fitting sparse logistic regression with 24510 observations, 5482 variants and 1 covariates... done.
Extracting regression coefficients... Warning message:
The `x` argument of `as_tibble.matrix()` must have unique column names if
`.name_repair` is omitted as of tibble 2.0.0.
ℹ Using compatibility `.name_repair`. 
done.
Computing test statistics... `summarise()` has grouped output by 'CHR'. You can override using the `.groups`
argument.
done.
# A tibble: 728 × 6
   CHR   Group SNP.lead    BP.lead  Size       W
   <chr> <int> <chr>         <int> <int>   <dbl>
 1 22     1801 rs2076125  39711351     2  0.0703
 2 22      248 rs7291930  20876509     1  0.0589
 3 22      933 rs1002189  30771458     1  0.0441
 4 22      276 rs1210606  21452237     1  0.0436
 5 22     1797 rs968451   39670851     1  0.0421
 6 22     1949 rs34030679 42610099     1  0.0362
 7 22     1651 rs2284033  37534034     1  0.0309
 8 22     1807 rs5757670  39829736     1 -0.0275
 9 22     1895 rs4822024  41757647     2 -0.0269
10 22     2713 rs140522   50971266     2  0.0267
11 22     1518 rs4820201  35970204     1  0.0265
12 22     1809 rs710192   39913420     1 -0.0260
13 22     1887 rs139461   41611460     1 -0.0253
14 22     1091 rs5994466  32518130     1  0.0249
15 22     1916 rs9607852  42258272     1  0.0244
16 22       59 rs439231   18319179     1  0.0238
17 22      565 rs8139900  26394724     1  0.0234
18 22     2135 rs2267597  44427612     1  0.0233
19 22     2360 rs13057352 47095235     1  0.0218
20 22      377 rs5759742  23700907     1  0.0204
# ℹ 708 more rows
…
