…
  dat <- vroom(...)
  problems(dat) 
Computing scaling factors for all variants... done.
Reading phenotype file... done.
0 individuals out of 24510 have missing phenotype.
Fitting sparse logistic regression with 24510 observations, 14512 variants and 1 covariates... done.
Extracting regression coefficients... Warning message:
The `x` argument of `as_tibble.matrix()` must have unique column names if
`.name_repair` is omitted as of tibble 2.0.0.
ℹ Using compatibility `.name_repair`. 
done.
Computing test statistics... `summarise()` has grouped output by 'CHR'. You can override using the `.groups`
argument.
done.
# A tibble: 130 × 6
   CHR   Group SNP.lead     BP.lead  Size       W
   <chr> <int> <chr>          <int> <int>   <dbl>
 1 18       91 rs4309483   56085917    18  0.0538
 2 18      113 rs1790588   67535184     6  0.0525
 3 18       49 rs2278664   21719327    16  0.0334
 4 18       65 rs61735998  34289285    12  0.0299
 5 18       69 rs989885    38464855    13 -0.0232
 6 18       95 rs17773430  57963117     5  0.0229
 7 18      111 rs17080654  66898945     9  0.0221
 8 18        0 rs1893134     450102     9 -0.0188
 9 18       45 rs3859299   13462726     8  0.0186
10 18       57 rs8088478   26413621    16  0.0168
11 18       70 rs1835499   40335882    19  0.0159
12 18        8 rs11665524   2978535     2  0.0141
13 18       18 rs117900256  5478295     4 -0.0134
14 18      109 rs17078903  65982452     3  0.0129
15 18       56 rs2851757   25313101     7 -0.0128
16 18       78 rs12454113  46044052    11  0.0115
17 18       92 rs17835556  56818766     7  0.0110
18 18       89 rs12958967  55315959     8  0.0107
19 18      102 rs6567383   61375683     7  0.0107
20 18       62 rs11399467  31477790    10 -0.0107
# ℹ 110 more rows
…
  dat <- vroom(...)
  problems(dat) 
Computing scaling factors for all variants... done.
Reading phenotype file... done.
0 individuals out of 24510 have missing phenotype.
Fitting sparse logistic regression with 24510 observations, 14512 variants and 1 covariates... done.
Extracting regression coefficients... Warning message:
The `x` argument of `as_tibble.matrix()` must have unique column names if
`.name_repair` is omitted as of tibble 2.0.0.
ℹ Using compatibility `.name_repair`. 
done.
Computing test statistics... `summarise()` has grouped output by 'CHR'. You can override using the `.groups`
argument.
done.
# A tibble: 183 × 6
   CHR   Group SNP.lead    BP.lead  Size        W
   <chr> <int> <chr>         <int> <int>    <dbl>
 1 18      200 rs1790588  67535184     3  0.0538 
 2 18      164 rs7228600  56508351    10  0.0358 
 3 18      171 rs17773430 57963117     5  0.0245 
 4 18      113 rs61735998 34289285     7  0.0230 
 5 18      197 rs17080654 66898945     8  0.0203 
 6 18      124 rs1835499  40335882     2  0.0172 
 7 18       84 rs7238618  20913598    10  0.0165 
 8 18       14 rs11665524  2978535     1  0.0154 
 9 18       85 rs2278664  21719327     5  0.0150 
10 18      163 rs4309483  56085917     4  0.0147 
11 18      111 rs1540043  33691313     6  0.0145 
12 18      194 rs17078903 65982452     3  0.0141 
13 18       98 rs8088478  26413621     6  0.0125 
14 18       95 rs11659941 24494344     2 -0.0118 
15 18       76 rs3859299  13462726     3  0.0110 
16 18      165 rs17835556 56818766     2  0.0109 
17 18      156 rs1792741  53887306     6 -0.0108 
18 18      187 rs12455246 63498880     3  0.0108 
19 18      226 rs7228334  73500233     3  0.00984
20 18      117 rs2953409  36579088     3 -0.00949
# ℹ 163 more rows
…
  dat <- vroom(...)
  problems(dat) 
Computing scaling factors for all variants... done.
Reading phenotype file... done.
0 individuals out of 24510 have missing phenotype.
Fitting sparse logistic regression with 24510 observations, 14512 variants and 1 covariates... done.
Extracting regression coefficients... Warning message:
The `x` argument of `as_tibble.matrix()` must have unique column names if
`.name_repair` is omitted as of tibble 2.0.0.
ℹ Using compatibility `.name_repair`. 
done.
Computing test statistics... `summarise()` has grouped output by 'CHR'. You can override using the `.groups`
argument.
done.
# A tibble: 249 × 6
   CHR   Group SNP.lead    BP.lead  Size        W
   <chr> <int> <chr>         <int> <int>    <dbl>
 1 18      383 rs1790588  67535184     2  0.0484 
 2 18      331 rs17773430 57963117     4  0.0210 
 3 18      318 rs7228600  56508351     5  0.0206 
 4 18      382 rs882114   67466881     5 -0.0185 
 5 18      212 rs1540043  33691313     2  0.0168 
 6 18       86 rs1441002   7887531     1 -0.0164 
 7 18      236 rs1835499  40335882     1  0.0143 
 8 18       27 rs11665524  2978535     1  0.0137 
 9 18      316 rs4309483  56085917     2  0.0133 
10 18      372 rs17078903 65982452     2  0.0128 
11 18      215 rs61735998 34289285     3  0.0125 
12 18      158 rs7238618  20913598     7  0.0119 
13 18      160 rs2278664  21719327     6  0.0116 
14 18      145 rs3859299  13462726     2  0.0112 
15 18      317 rs7238217  56227820     3  0.0109 
16 18      184 rs8088478  26413621     4  0.0106 
17 18      361 rs12455246 63498880     2  0.0101 
18 18      375 rs12606250 66327314     6 -0.00875
19 18      428 rs7228334  73500233     2  0.00861
20 18      378 rs17080654 66898945     3  0.00858
# ℹ 229 more rows
…
  dat <- vroom(...)
  problems(dat) 
Computing scaling factors for all variants... done.
Reading phenotype file... done.
0 individuals out of 24510 have missing phenotype.
Fitting sparse logistic regression with 24510 observations, 14512 variants and 1 covariates... done.
Extracting regression coefficients... Warning message:
The `x` argument of `as_tibble.matrix()` must have unique column names if
`.name_repair` is omitted as of tibble 2.0.0.
ℹ Using compatibility `.name_repair`. 
done.
Computing test statistics... `summarise()` has grouped output by 'CHR'. You can override using the `.groups`
argument.
done.
# A tibble: 361 × 6
   CHR   Group SNP.lead    BP.lead  Size       W
   <chr> <int> <chr>         <int> <int>   <dbl>
 1 18      569 rs1790588  67535184     3  0.0556
 2 18      488 rs17773430 57963117     2  0.0223
 3 18      254 rs11659941 24494344     2 -0.0198
 4 18      312 rs1540043  33691313     1  0.0192
 5 18       39 rs11665524  2978535     1  0.0176
 6 18      317 rs61735998 34289285     3  0.0170
 7 18      350 rs1835499  40335882     1  0.0167
 8 18        2 rs618671     362199     3 -0.0158
 9 18      646 rs17058811 73785500     3 -0.0140
10 18      375 rs732109   44135050     1 -0.0137
11 18      225 rs35693789 21747400     4  0.0137
12 18      200 rs3859299  13462726     1  0.0136
13 18      246 rs7226601  23877833     2 -0.0136
14 18      465 rs4309483  56085917     1  0.0134
15 18      554 rs17078903 65982452     5  0.0133
16 18      467 rs7238217  56227820     4  0.0128
17 18      654 rs4365382  74356391     2 -0.0126
18 18      474 rs17835556 56818766     2  0.0122
19 18      469 rs1059442  56416693     1  0.0117
20 18      535 rs12455246 63498880     2  0.0115
# ℹ 341 more rows
…
  dat <- vroom(...)
  problems(dat) 
Computing scaling factors for all variants... done.
Reading phenotype file... done.
0 individuals out of 24510 have missing phenotype.
Fitting sparse logistic regression with 24510 observations, 14512 variants and 1 covariates... done.
Extracting regression coefficients... Warning message:
The `x` argument of `as_tibble.matrix()` must have unique column names if
`.name_repair` is omitted as of tibble 2.0.0.
ℹ Using compatibility `.name_repair`. 
done.
Computing test statistics... `summarise()` has grouped output by 'CHR'. You can override using the `.groups`
argument.
done.
# A tibble: 462 × 6
   CHR   Group SNP.lead    BP.lead  Size       W
   <chr> <int> <chr>         <int> <int>   <dbl>
 1 18      828 rs1790588  67535184     3  0.0567
 2 18      347 rs11659941 24494344     2 -0.0292
 3 18      706 rs17773430 57963117     4  0.0226
 4 18      434 rs1540043  33691313     1  0.0196
 5 18      498 rs1835499  40335882     3  0.0184
 6 18       51 rs11665524  2978535     1  0.0182
 7 18      678 rs7238217  56227820     6  0.0178
 8 18      443 rs61735998 34289285     3  0.0178
 9 18       17 rs1720464   1013959     1 -0.0175
10 18      306 rs2278664  21719327     5  0.0172
11 18      227 rs11877870 10742289     1 -0.0169
12 18      806 rs17078903 65982452     2  0.0160
13 18      298 rs7238618  20913598     7  0.0153
14 18      160 rs1441002   7887531     2 -0.0152
15 18      681 rs4940757  56461646     6 -0.0148
16 18      319 rs8086988  22510457     1 -0.0137
17 18      268 rs3859299  13462726     2  0.0136
18 18      686 rs17835556 56818766     2  0.0133
19 18      675 rs4309483  56085917     1  0.0125
20 18      773 rs12455246 63498880     1  0.0123
# ℹ 442 more rows
…
  dat <- vroom(...)
  problems(dat) 
Computing scaling factors for all variants... done.
Reading phenotype file... done.
0 individuals out of 24510 have missing phenotype.
Fitting sparse logistic regression with 24510 observations, 14512 variants and 1 covariates... done.
Extracting regression coefficients... Warning message:
The `x` argument of `as_tibble.matrix()` must have unique column names if
`.name_repair` is omitted as of tibble 2.0.0.
ℹ Using compatibility `.name_repair`. 
done.
Computing test statistics... `summarise()` has grouped output by 'CHR'. You can override using the `.groups`
argument.
done.
# A tibble: 524 × 6
   CHR   Group SNP.lead    BP.lead  Size        W
   <chr> <int> <chr>         <int> <int>    <dbl>
 1 18     1703 rs1790588  67535184     4  0.0416 
 2 18     1440 rs17773430 57963117     3  0.0172 
 3 18      818 rs1540043  33691313     2  0.0145 
 4 18      965 rs1835499  40335882     3  0.0143 
 5 18       89 rs11665524  2978535     1  0.0139 
 6 18      436 rs1893217  12809340     2 -0.0133 
 7 18      274 rs1441002   7887531     1 -0.0123 
 8 18      834 rs61735998 34289285     1  0.0114 
 9 18      406 rs8088825  11512551     1 -0.0106 
10 18     1587 rs12455246 63498880     1  0.0104 
11 18      661 rs8088478  26413621     2  0.0104 
12 18     1374 rs7238217  56227820     1  0.0103 
13 18     1380 rs1059442  56416693     1  0.00993
14 18      527 rs1565082  21692286     2 -0.00974
15 18     1137 rs2000813  47093864     2  0.00968
16 18     1408 rs17769526 57047921     2 -0.00936
17 18     1397 rs17835556 56818766     2  0.00917
18 18      145 rs8085726   4370882     1  0.00858
19 18     1686 rs2364201  67088062     1  0.00846
20 18      509 rs2278452  20774097     1  0.00823
# ℹ 504 more rows
…
  dat <- vroom(...)
  problems(dat) 
Computing scaling factors for all variants... done.
Reading phenotype file... done.
0 individuals out of 24510 have missing phenotype.
Fitting sparse logistic regression with 24510 observations, 14512 variants and 1 covariates... done.
Extracting regression coefficients... Warning message:
The `x` argument of `as_tibble.matrix()` must have unique column names if
`.name_repair` is omitted as of tibble 2.0.0.
ℹ Using compatibility `.name_repair`. 
done.
Computing test statistics... `summarise()` has grouped output by 'CHR'. You can override using the `.groups`
argument.
done.
# A tibble: 672 × 6
   CHR   Group SNP.lead    BP.lead  Size        W
   <chr> <int> <chr>         <int> <int>    <dbl>
 1 18     6188 rs1790588  67535184     1  0.0289 
 2 18      688 rs1441002   7887531     1 -0.0214 
 3 18     6189 rs1788103  67538824     2  0.0210 
 4 18     2483 rs1540043  33691313     1  0.0194 
 5 18     5092 rs17773430 57963117     2  0.0176 
 6 18      266 rs11665524  2978535     1  0.0171 
 7 18     3140 rs1835499  40335882     1  0.0169 
 8 18     5682 rs12455246 63498880     1  0.0128 
 9 18     4810 rs4309483  56085917     1  0.0128 
10 18     1142 rs3859299  13462726     1  0.0122 
11 18     4848 rs7238217  56227820     1  0.0122 
12 18     4931 rs17835556 56818766     1  0.0119 
13 18     4868 rs1059442  56416693     1  0.0116 
14 18     5391 rs1005793  60890160     1 -0.0111 
15 18      369 rs8085726   4370882     2  0.0106 
16 18     3192 rs2622781  41081332     2 -0.0105 
17 18     1072 rs2847286  12817815     1 -0.0102 
18 18     1865 rs8088478  26413621     1  0.00999
19 18     1304 rs2278452  20774097     1  0.00988
20 18     1050 rs2096847  12415136     1  0.00982
# ℹ 652 more rows
…
