…
  dat <- vroom(...)
  problems(dat) 
Computing scaling factors for all variants... done.
Reading phenotype file... done.
0 individuals out of 24510 have missing phenotype.
Fitting sparse logistic regression with 24510 observations, 10720 variants and 1 covariates... done.
Extracting regression coefficients... Warning message:
The `x` argument of `as_tibble.matrix()` must have unique column names if
`.name_repair` is omitted as of tibble 2.0.0.
ℹ Using compatibility `.name_repair`. 
done.
Computing test statistics... `summarise()` has grouped output by 'CHR'. You can override using the `.groups`
argument.
done.
# A tibble: 137 × 6
   CHR   Group SNP.lead    BP.lead  Size       W
   <chr> <int> <chr>         <int> <int>   <dbl>
 1 17       65 rs9303277  37976469    24  0.141 
 2 17       72 rs199533   44828931    21  0.0732
 3 17       74 rs3826397  46509447    20  0.0697
 4 17       83 rs7207114  53434046    12  0.0412
 5 17       90 rs1292053  57963537    20  0.0409
 6 17       73 rs2292700  45362423    13  0.0373
 7 17       61 rs12941866 34900120     5  0.0371
 8 17      108 rs12451606 70023827    14  0.0340
 9 17        6 rs58337165  1684605     5  0.0334
10 17       57 rs891754   32810443    16 -0.0318
11 17       14 rs3786046   4920360    24  0.0315
12 17       21 rs12952489  8241891    13  0.0294
13 17       94 rs6504191  62041068    10  0.0294
14 17       86 rs7224488  54868625     4 -0.0286
15 17      135 rs999977   78606412    14  0.0278
16 17       80 rs10514997 50299021     8  0.0278
17 17       50 rs4470197  28464474     9  0.0268
18 17      132 rs7216806  77538517     1  0.0259
19 17      104 rs8071899  67930946     8  0.0257
20 17      105 rs12150382 68222772    15  0.0252
# ℹ 117 more rows
…
  dat <- vroom(...)
  problems(dat) 
Computing scaling factors for all variants... done.
Reading phenotype file... done.
0 individuals out of 24510 have missing phenotype.
Fitting sparse logistic regression with 24510 observations, 10720 variants and 1 covariates... done.
Extracting regression coefficients... Warning message:
The `x` argument of `as_tibble.matrix()` must have unique column names if
`.name_repair` is omitted as of tibble 2.0.0.
ℹ Using compatibility `.name_repair`. 
done.
Computing test statistics... `summarise()` has grouped output by 'CHR'. You can override using the `.groups`
argument.
done.
# A tibble: 197 × 6
   CHR   Group SNP.lead    BP.lead  Size       W
   <chr> <int> <chr>         <int> <int>   <dbl>
 1 17      117 rs9303277  37976469    16  0.156 
 2 17      130 rs3826397  46509447    10  0.0809
 3 17      129 rs2292700  45362423     9  0.0451
 4 17       23 rs3786046   4920360     7  0.0379
 5 17      147 rs7207114  53434046     5  0.0376
 6 17      166 rs6504191  62041068     3  0.0359
 7 17      109 rs12941866 34900120     3  0.0343
 8 17        9 rs58337165  1684605     4  0.0312
 9 17      115 rs923370   37010150     3 -0.0273
10 17      192 rs12451606 70023827    13  0.0268
11 17       37 rs2304911   8050979     7  0.0258
12 17      160 rs1292053  57963537    12  0.0245
13 17      234 rs7216806  77538517     2  0.0245
14 17      127 rs1230103  43485791    10  0.0243
15 17      185 rs8071899  67930946     3  0.0240
16 17      141 rs10514997 50299021     5  0.0214
17 17      242 rs7342974  79483999     4  0.0205
18 17      228 rs7218605  76811803     3  0.0204
19 17      202 rs2661611  71708855     6  0.0203
20 17       33 rs2270981   7216540     4  0.0199
# ℹ 177 more rows
…
  dat <- vroom(...)
  problems(dat) 
Computing scaling factors for all variants... done.
Reading phenotype file... done.
0 individuals out of 24510 have missing phenotype.
Fitting sparse logistic regression with 24510 observations, 10720 variants and 1 covariates... done.
Extracting regression coefficients... Warning message:
The `x` argument of `as_tibble.matrix()` must have unique column names if
`.name_repair` is omitted as of tibble 2.0.0.
ℹ Using compatibility `.name_repair`. 
done.
Computing test statistics... `summarise()` has grouped output by 'CHR'. You can override using the `.groups`
argument.
done.
# A tibble: 337 × 6
   CHR   Group SNP.lead    BP.lead  Size       W
   <chr> <int> <chr>         <int> <int>   <dbl>
 1 17      223 rs9303277  37976469    14  0.157 
 2 17      249 rs3826397  46509447    12  0.0557
 3 17      248 rs2292700  45362423     9  0.0468
 4 17      245 rs1981997  44056767     9 -0.0417
 5 17       13 rs8071756   1574342     4 -0.0386
 6 17      208 rs12941866 34900120     1  0.0365
 7 17       36 rs3786046   4920360     5  0.0293
 8 17       15 rs58337165  1684605     3  0.0284
 9 17      324 rs6504191  62041068     2  0.0252
10 17      454 rs7216806  77538517     1  0.0239
11 17      310 rs1292053  57963537     8  0.0223
12 17      393 rs2661611  71708855     4  0.0222
13 17       63 rs4792734   8208155     7  0.0215
14 17      282 rs7207114  53434046     3  0.0214
15 17      270 rs10514997 50299021     5  0.0214
16 17      442 rs7218605  76811803     3  0.0211
17 17      285 rs4239198  53623023     4 -0.0207
18 17      337 rs17769593 64221641    11  0.0199
19 17       91 rs406446   10614442     2  0.0191
20 17      467 rs7342974  79483999     4  0.0183
# ℹ 317 more rows
…
  dat <- vroom(...)
  problems(dat) 
Computing scaling factors for all variants... done.
Reading phenotype file... done.
0 individuals out of 24510 have missing phenotype.
Fitting sparse logistic regression with 24510 observations, 10720 variants and 1 covariates... done.
Extracting regression coefficients... Warning message:
The `x` argument of `as_tibble.matrix()` must have unique column names if
`.name_repair` is omitted as of tibble 2.0.0.
ℹ Using compatibility `.name_repair`. 
done.
Computing test statistics... `summarise()` has grouped output by 'CHR'. You can override using the `.groups`
argument.
done.
# A tibble: 422 × 6
   CHR   Group SNP.lead    BP.lead  Size       W
   <chr> <int> <chr>         <int> <int>   <dbl>
 1 17      334 rs9303277  37976469    13  0.151 
 2 17      372 rs199533   44828931     4 -0.0466
 3 17      375 rs2292700  45362423    12  0.0413
 4 17      311 rs12941866 34900120     2  0.0371
 5 17       16 rs8071756   1574342     2 -0.0360
 6 17      557 rs12451606 70023827     3  0.0309
 7 17       53 rs3786046   4920360     5  0.0306
 8 17      464 rs1292053  57963537     7  0.0268
 9 17      482 rs6504191  62041068     2  0.0267
10 17      587 rs2661611  71708855     2  0.0254
11 17      378 rs3826397  46509447     5  0.0252
12 17       18 rs58337165  1684605     5  0.0251
13 17      674 rs7216806  77538517     1  0.0249
14 17      377 rs62067380 46000406     4  0.0231
15 17      425 rs7207114  53434046     3  0.0224
16 17      659 rs7218605  76811803     5  0.0207
17 17       86 rs2270981   7216540     2  0.0206
18 17      138 rs406446   10614442     2  0.0203
19 17      409 rs10514997 50299021     8  0.0194
20 17      371 rs3785883  44054433     2 -0.0194
# ℹ 402 more rows
…
  dat <- vroom(...)
  problems(dat) 
Computing scaling factors for all variants... done.
Reading phenotype file... done.
0 individuals out of 24510 have missing phenotype.
Fitting sparse logistic regression with 24510 observations, 10720 variants and 1 covariates... done.
Extracting regression coefficients... Warning message:
The `x` argument of `as_tibble.matrix()` must have unique column names if
`.name_repair` is omitted as of tibble 2.0.0.
ℹ Using compatibility `.name_repair`. 
done.
Computing test statistics... `summarise()` has grouped output by 'CHR'. You can override using the `.groups`
argument.
done.
# A tibble: 399 × 6
   CHR   Group SNP.lead    BP.lead  Size       W
   <chr> <int> <chr>         <int> <int>   <dbl>
 1 17      456 rs9303277  37976469     9  0.137 
 2 17      427 rs12941866 34900120     2  0.0352
 3 17       25 rs11867830  1760379     2 -0.0338
 4 17      521 rs3826397  46509447     5  0.0331
 5 17      612 rs10515134 54863448     3 -0.0301
 6 17      670 rs6504191  62041068     1  0.0254
 7 17      516 rs2292700  45362423     4  0.0252
 8 17      354 rs4350617  28423088     6 -0.0244
 9 17      972 rs7405450  79540449     2 -0.0243
10 17      820 rs2661611  71708855     2  0.0237
11 17      942 rs7216806  77538517     1  0.0235
12 17      778 rs12451606 70023827     3  0.0230
13 17      289 rs230956   15202205     1 -0.0229
14 17      563 rs10514997 50299021     5  0.0200
15 17      592 rs7207114  53434046     3  0.0192
16 17      190 rs406446   10614442     2  0.0186
17 17       24 rs58337165  1684605     2  0.0178
18 17      853 rs4789114  72950927     1  0.0176
19 17      509 rs4792891  43973498     3 -0.0174
20 17      698 rs17769593 64221641     5  0.0174
# ℹ 379 more rows
…
  dat <- vroom(...)
  problems(dat) 
Computing scaling factors for all variants... done.
Reading phenotype file... done.
0 individuals out of 24510 have missing phenotype.
Fitting sparse logistic regression with 24510 observations, 10720 variants and 1 covariates... done.
Extracting regression coefficients... Warning message:
The `x` argument of `as_tibble.matrix()` must have unique column names if
`.name_repair` is omitted as of tibble 2.0.0.
ℹ Using compatibility `.name_repair`. 
done.
Computing test statistics... `summarise()` has grouped output by 'CHR'. You can override using the `.groups`
argument.
done.
# A tibble: 737 × 6
   CHR   Group SNP.lead    BP.lead  Size       W
   <chr> <int> <chr>         <int> <int>   <dbl>
 1 17      851 rs9303277  37976469     4  0.139 
 2 17      994 rs3826397  46509447     1  0.0331
 3 17       44 rs11867830  1760379     1 -0.0328
 4 17     1287 rs6504191  62041068     1  0.0288
 5 17      988 rs62067380 46000406     3  0.0274
 6 17     1774 rs7216806  77538517     1  0.0267
 7 17     1253 rs2378871  59638769     2 -0.0240
 8 17      212 rs2270981   7216540     2  0.0240
 9 17      520 rs230956   15202205     1 -0.0239
10 17     1490 rs12451606 70023827     1  0.0238
11 17      979 rs2292700  45362423     3  0.0234
12 17      340 rs406446   10614442     2  0.0224
13 17       41 rs58337165  1684605     1  0.0211
14 17     1741 rs7218605  76811803     2  0.0207
15 17     1435 rs8071899  67930946     1  0.0203
16 17     1138 rs7207114  53434046     2  0.0191
17 17      958 rs7215239  43767773     1 -0.0191
18 17      106 rs9909751   4299256     1  0.0184
19 17     1618 rs4789114  72950927     1  0.0183
20 17     1565 rs2661611  71708855     2  0.0176
# ℹ 717 more rows
…
  dat <- vroom(...)
  problems(dat) 
Computing scaling factors for all variants... done.
Reading phenotype file... done.
0 individuals out of 24510 have missing phenotype.
Fitting sparse logistic regression with 24510 observations, 10720 variants and 1 covariates... done.
Extracting regression coefficients... Warning message:
The `x` argument of `as_tibble.matrix()` must have unique column names if
`.name_repair` is omitted as of tibble 2.0.0.
ℹ Using compatibility `.name_repair`. 
done.
Computing test statistics... `summarise()` has grouped output by 'CHR'. You can override using the `.groups`
argument.
done.
# A tibble: 897 × 6
   CHR   Group SNP.lead    BP.lead  Size       W
   <chr> <int> <chr>         <int> <int>   <dbl>
 1 17     2310 rs9303277  37976469     1  0.125 
 2 17     2853 rs3826397  46509447     1  0.0329
 3 17     2715 rs199533   44828931     2 -0.0329
 4 17     2164 rs12941866 34900120     2 -0.0313
 5 17     3781 rs6504191  62041068     1  0.0288
 6 17      853 rs2662959  10583589     1 -0.0277
 7 17     2755 rs2292700  45362423     1  0.0264
 8 17     5122 rs7216806  77538517     2  0.0242
 9 17     4441 rs12451606 70023827     1  0.0236
10 17      286 rs8072531   4752260     1 -0.0230
11 17      660 rs2304911   8050979     2 -0.0207
12 17       88 rs58337165  1684605     1  0.0207
13 17     3367 rs7207114  53434046     1  0.0201
14 17     4260 rs8071899  67930946     1  0.0192
15 17      264 rs9909751   4299256     1  0.0191
16 17     4760 rs4789114  72950927     1  0.0191
17 17      103 rs11867830  1760379     1 -0.0189
18 17     3246 rs2331798  51909152     1 -0.0168
19 17     1329 rs230956   15202205     1 -0.0154
20 17     2879 rs9890514  46738883     1  0.0154
# ℹ 877 more rows
…
